Pre-processing script - Preliminary data inspection and preparation
…
Filter participant raw data

Filter the data to only include gaze samples that (1) are valid, (2)
are drift compensated, (3) are inside the computer screen, and (4)
occurred during the presentation of the pictures (label =
“Pictures_Onset”).

#load participant raw data
setwd (file.path(RawMainDir,PartSubDir))
d_raw <- read_csv(gaze_data_file)

d_raw

## # A tibble: 23,170 × 52
##    timestamp timestamp_received timestamp_relative trial_id label          
##    <time>    <time>                          <dbl>    <dbl> <chr>          
##  1 12:31:58  12:31:58                      402003.        0 recordingenable
##  2 12:31:58  12:31:58                      402020.        0 recordingenable
##  3 12:31:58  12:31:58                      402036.        0 recordingenable
##  4 12:31:58  12:31:58                      402053.        0 recordingenable
##  5 12:31:58  12:31:58                      402070.        0 recordingenable
##  6 12:31:58  12:31:58                      402086.        0 recordingenable
##  7 12:31:58  12:31:58                      402103.        0 driftcheck     
##  8 12:31:58  12:31:58                      402120         0 driftcheck     
##  9 12:31:58  12:31:58                      402136         0 driftcheck     
## 10 12:31:58  12:31:58                      402153.        0 driftcheck     
## # ℹ 23,160 more rows
## # ℹ 47 more variables: combined_gazePoint2dCompensated_x <dbl>,
## #   combined_gazePoint2dCompensated_y <dbl>, combined_gazePoint2d_x <dbl>,
## #   combined_gazePoint2d_y <dbl>, combined_gazePoint2d_isValid <lgl>,
## #   combined_gazePoint3dCompensated_x <dbl>,
## #   combined_gazePoint3dCompensated_y <dbl>,
## #   combined_gazePoint3dCompensated_z <dbl>, combined_gazePoint3d_x <dbl>, …
…
